%YAML 1.1
%TAG !u! tag:unity3d.com,2011:
--- !u!114 &11400000
MonoBehaviour:
  m_ObjectHideFlags: 0
  m_CorrespondingSourceObject: {fileID: 0}
  m_PrefabInstance: {fileID: 0}
  m_PrefabAsset: {fileID: 0}
  m_GameObject: {fileID: 0}
  m_Enabled: 1
  m_EditorHideFlags: 0
  m_Script: {fileID: 11500000, guid: 9e24228894af00349af59069a13bf22b, type: 3}
  m_Name: testScene
  m_EditorClassIdentifier: 
  sentences:
  - Where the **** is my toy at???
  - Maybe in this tent?
  playerMovementLocations:
  - {x: -5, y: 0}
  - {x: -5, y: 0}
  secondaryCharacter: {fileID: 0}
